<?xml version="1.0" encoding="utf-8"?>
<!-- Generator: Adobe Illustrator 23.0.3, SVG Export Plug-In . SVG Version: 6.00 Build 0)  -->
<svg version="1.1" id="Calque_1" xmlns="http://www.w3.org/2000/svg" xmlns:xlink="http://www.w3.org/1999/xlink" x="0px" y="0px"
	 viewBox="0 0 135.5 138.6" style="enable-background:new 0 0 135.5 138.6;" xml:space="preserve">
<path d="M67.8,4.7c-35.3,0-64,28.7-64,64s28.7,64,64,64c35.3,0,64-28.7,64-64S103.1,4.7,67.8,4.7z M32,52.9
	c-0.7-0.8-0.6-2.1,0.2-2.8c7.3-6.2,18.4-6.3,25.7-0.2c0.9,0.7,1,2,0.3,2.8c-0.7,0.9-2,1-2.8,0.3c-5.9-4.9-14.7-4.8-20.6,0.2
	c-0.4,0.3-0.8,0.5-1.3,0.5C33,53.6,32.4,53.4,32,52.9z M67.8,110.7c-18,0-32.6-13.4-33-30h66C100.3,97.3,85.7,110.7,67.8,110.7z
	 M105.3,52.7c-0.7,0.9-2,1-2.8,0.3c-5.9-4.9-14.7-4.8-20.6,0.2c-0.4,0.3-0.8,0.5-1.3,0.5c-0.6,0-1.1-0.2-1.5-0.7
	c-0.7-0.8-0.6-2.1,0.2-2.8c7.3-6.2,18.4-6.3,25.7-0.2C105.9,50.6,106,51.8,105.3,52.7z"/>
</svg>
