<?xml version="1.0" encoding="utf-8"?>
<!-- Generator: Adobe Illustrator 23.0.3, SVG Export Plug-In . SVG Version: 6.00 Build 0)  -->
<svg version="1.1" id="Calque_1" xmlns="http://www.w3.org/2000/svg" xmlns:xlink="http://www.w3.org/1999/xlink" x="0px" y="0px"
	 viewBox="0 0 100 67.4" style="enable-background:new 0 0 100 67.4;" xml:space="preserve">
<g>
	<path d="M46.6,46.9c-0.6,0.5-1.1,0.9-1.6,1.2c-0.5,0.4-5.3,5.3-7.4,7.7c-0.2,0.3-0.5,0.6-0.7,0.8c-0.3,0.4-0.6,0.8-0.9,1.1
		c14.1-3,38.2-16.2,48-20.7l0,0c2-0.9,3.2-1.5,3.2-1.5s5.7-2.6,7.6-6c0.1-0.1,0.1-0.2,0.2-0.3C66.8,31.1,53.2,41.8,46.6,46.9z"/>
	<path d="M44.1,47.1C44.1,47.1,44.1,47,44.1,47.1c0.5-0.4,1.1-0.8,1.6-1.3c1.4-1.1,3.2-2.5,5.4-4C27.1,47,23.2,38,23.2,38v-3.4
		c5.5,9.5,29,4.8,33.4,3.8c2.8-1.6,6.1-3.2,9.9-4.7c1.4-1.2,2.9-2.9,2.8-4.2l0.3,3.1c3.5-1.2,7.5-2.2,11.9-3.1c-0.4,0-0.7,0-1.1,0
		c-3.8-0.2-8.1-0.8-11.2-1.3c-0.3-3.5-0.8-7.7-1.5-10.9c-0.7-3.1-1.8-8.6-5.2-11.1c-3.4-2.4-9.4,0.5-9.4,0.5
		c-4.9-4.7-18.6,1.1-22,2.9s-4.4,3.7-5.3,6c-0.4,1-1,4.9-1.5,8.9c-4.5-0.8-16.5-1.9-18.5,7c-2.6,11,1,25.3,12.8,26.2l10.8,1
		c0,0,0.7-0.1,1.8-0.2l0,0c0.5,0,0.9,0,1.4-0.1c1.6-0.5,2.3-1.4,3.2-2.6c0.2-0.3,0.4-0.6,0.7-0.9C38.8,52.3,43.9,47.3,44.1,47.1z
		 M65.4,21c0.6,0,1,0.5,1,1c0,0.6-0.5,1-1,1c-0.6,0-1-0.5-1-1C64.4,21.4,64.9,21,65.4,21z M61.1,22.9c0.6,0,1,0.5,1,1
		c0,0.6-0.5,1-1,1c-0.6,0-1-0.5-1-1S60.6,22.9,61.1,22.9z M56.5,24.8c0.6,0,1,0.5,1,1c0,0.6-0.5,1-1,1c-0.6,0-1-0.5-1-1
		C55.4,25.3,55.9,24.8,56.5,24.8z"/>
</g>
</svg>
